bm8bit_new.sim/sim_1/behav/xsim/simulate.log
Time resolution is 1 ps
00000000,xxxxxxxx,xxxxxxxx,xxxxxxxx,xxxxxxxx,xxxxxxxx
00000000,00000000,00000000,00000000,00000000,00000000
01010000,00000000,00000000,00000000,00000000,00000000
00100000,01010000,00000000,00000000,00000000,00000000
01100000,00100000,01010000,00000000,00000000,00000000
01010000,01100000,00100000,01010000,00000000,00000000
01010000,01010000,01100000,00100000,01010000,00000000
01000000,01010000,01010000,01100000,00100000,01010000
00100000,01000000,01010000,01010000,01100000,00100000
01000000,00100000,01000000,01010000,01010000,01100000
00010000,01000000,00100000,01000000,01010000,01010000
00010000,00010000,01000000,00100000,01000000,01010000
00010000,00010000,00010000,01000000,00100000,01000000
00010000,00010000,00010000,00010000,01000000,00100000
00010000,00010000,00010000,00010000,00010000,01000000
00010000,00010000,00010000,00010000,00010000,00010000
00010000,00010000,00010000,00010000,00010000,00010000
00010000,00010000,00010000,00010000,00010000,00010000
00010000,00010000,00010000,00010000,00010000,00010000
00010000,00010000,00010000,00010000,00010000,00010000
00010000,00010000,00010000,00010000,00010000,00010000
00010000,00010000,00010000,00010000,00010000,00010000
00010000,00010000,00010000,00010000,00010000,00010000
00010000,00010000,00010000,00010000,00010000,00010000
00010000,00010000,00010000,00010000,00010000,00010000
00010000,00010000,00010000,00010000,00010000,00010000
00010000,00010000,00010000,00010000,00010000,00010000
00010000,00010000,00010000,00010000,00010000,00010000
00010000,00010000,00010000,00010000,00010000,00010000
00010000,00010000,00010000,00010000,00010000,00010000
00010000,00010000,00010000,00010000,00010000,00010000
00010000,00010000,00010000,00010000,00010000,00010000
00010000,00010000,00010000,00010000,00010000,00010000
00010000,00010000,00010000,00010000,00010000,00010000
00010000,00010000,00010000,00010000,00010000,00010000
00010000,00010000,00010000,00010000,00010000,00010000
00010000,00010000,00010000,00010000,00010000,00010000
00010000,00010000,00010000,00010000,00010000,00010000
00010000,00010000,00010000,00010000,00010000,00010000
00010000,00010000,00010000,00010000,00010000,00010000
00010000,00010000,00010000,00010000,00010000,00010000
00010000,00010000,00010000,00010000,00010000,00010000
00010000,00010000,00010000,00010000,00010000,00010000
00010000,00010000,00010000,00010000,00010000,00010000
00010000,00010000,00010000,00010000,00010000,00010000
00010000,00010000,00010000,00010000,00010000,00010000
00010000,00010000,00010000,00010000,00010000,00010000
00010000,00010000,00010000,00010000,00010000,00010000
00010000,00010000,00010000,00010000,00010000,00010000
00010000,00010000,00010000,00010000,00010000,00010000
00010000,00010000,00010000,00010000,00010000,00010000
00010000,00010000,00010000,00010000,00010000,00010000
00010000,00010000,00010000,00010000,00010000,00010000
00010000,00010000,00010000,00010000,00010000,00010000
00010000,00010000,00010000,00010000,00010000,00010000
00010000,00010000,00010000,00010000,00010000,00010000
00010000,00010000,00010000,00010000,00010000,00010000
00010000,00010000,00010000,00010000,00010000,00010000
00010000,00010000,00010000,00010000,00010000,00010000
00010000,00010000,00010000,00010000,00010000,00010000
00010000,00010000,00010000,00010000,00010000,00010000
00010000,00010000,00010000,00010000,00010000,00010000
00010000,00010000,00010000,00010000,00010000,00010000
00010000,00010000,00010000,00010000,00010000,00010000
00010000,00010000,00010000,00010000,00010000,00010000
00010000,00010000,00010000,00010000,00010000,00010000
00010000,00010000,00010000,00010000,00010000,00010000
00010000,00010000,00010000,00010000,00010000,00010000
00010000,00010000,00010000,00010000,00010000,00010000
00010000,00010000,00010000,00010000,00010000,00010000
00010000,00010000,00010000,00010000,00010000,00010000
00010000,00010000,00010000,00010000,00010000,00010000
00010000,00010000,00010000,00010000,00010000,00010000
00010000,00010000,00010000,00010000,00010000,00010000
00010000,00010000,00010000,00010000,00010000,00010000
00010000,00010000,00010000,00010000,00010000,00010000
00010000,00010000,00010000,00010000,00010000,00010000
00010000,00010000,00010000,00010000,00010000,00010000
00010000,00010000,00010000,00010000,00010000,00010000
00010000,00010000,00010000,00010000,00010000,00010000
00010000,00010000,00010000,00010000,00010000,00010000
00010000,00010000,00010000,00010000,00010000,00010000
00010000,00010000,00010000,00010000,00010000,00010000
00010000,00010000,00010000,00010000,00010000,00010000
00010000,00010000,00010000,00010000,00010000,00010000
00010000,00010000,00010000,00010000,00010000,00010000
00010000,00010000,00010000,00010000,00010000,00010000
00010000,00010000,00010000,00010000,00010000,00010000
00010000,00010000,00010000,00010000,00010000,00010000
00010000,00010000,00010000,00010000,00010000,00010000
00010000,00010000,00010000,00010000,00010000,00010000
00010000,00010000,00010000,00010000,00010000,00010000
00010000,00010000,00010000,00010000,00010000,00010000
00010000,00010000,00010000,00010000,00010000,00010000
00010000,00010000,00010000,00010000,00010000,00010000
00010000,00010000,00010000,00010000,00010000,00010000
00010000,00010000,00010000,00010000,00010000,00010000
00010000,00010000,00010000,00010000,00010000,00010000
00010000,00010000,00010000,00010000,00010000,00010000
00010000,00010000,00010000,00010000,00010000,00010000
